<?xml version="1.0" encoding="UTF-8"?>
<svg width="467px" height="319px" viewBox="0 0 467 319" version="1.1" xmlns="http://www.w3.org/2000/svg" xmlns:xlink="http://www.w3.org/1999/xlink">
    <!-- Generator: Sketch 53 (72520) - https://sketchapp.com -->
    <title>Group 21</title>
    <desc>Created with Sketch.</desc>
    <g id="Page-1" stroke="none" stroke-width="1" fill="none" fill-rule="evenodd">
        <g id="Landing" transform="translate(-951.000000, -294.000000)">
            <g id="Group-26-Copy">
                <g id="Group-21" transform="translate(951.000000, 294.000000)">
                    <rect id="Rectangle" fill="#6262CC" x="381.769186" y="46.7824" width="37.310151" height="37.4304" rx="2.25119983"></rect>
                    <rect id="Rectangle" fill="#6262CC" x="238.758125" y="93.576" width="37.310151" height="37.4304" rx="2.25119983"></rect>
                    <rect id="Rectangle" fill="#6262CC" x="381.769186" y="93.576" width="37.310151" height="37.4304" rx="2.25119983"></rect>
                    <rect id="Rectangle" fill="#6262CC" x="429.446996" y="93.576" width="37.310151" height="37.4304" rx="2.25119983"></rect>
                    <rect id="Rectangle" fill="#6262CC" x="238.758125" y="233.9344" width="37.310151" height="37.4304" rx="2.25119983"></rect>
                    <rect id="Rectangle" fill="#6262CC" x="286.424751" y="233.9344" width="37.310151" height="37.4304" rx="2.25119983"></rect>
                    <rect id="Rectangle" fill="#6262CC" x="191.091499" y="187.1408" width="37.310151" height="37.4304" rx="2.25119983"></rect>
                    <rect id="Rectangle" fill="#6262CC" x="334.102561" y="140.3584" width="37.310151" height="37.4304" rx="2.25119983"></rect>
                    <rect id="Rectangle" fill="#6262CC" x="48.0692533" y="280.7168" width="37.310151" height="37.4304" rx="2.25119983"></rect>
                    <rect id="Rectangle" fill="#E6E6E6" x="238.758125" y="-2.13162821e-14" width="37.310151" height="37.4304" rx="2.25119983"></rect>
                    <rect id="Rectangle" fill="#E6E6E6" x="334.102561" y="-2.13162821e-14" width="37.310151" height="37.4304" rx="2.25119983"></rect>
                    <rect id="Rectangle" fill="#E6E6E6" x="143.413689" y="280.7168" width="37.310151" height="37.4304" rx="2.25119983"></rect>
                    <rect id="Rectangle" fill="#E6E6E6" x="191.091499" y="280.7168" width="37.310151" height="37.4304" rx="2.25119983"></rect>
                    <rect id="Rectangle" fill="#E6E6E6" x="334.102561" y="280.7168" width="37.310151" height="37.4304" rx="2.25119983"></rect>
                    <rect id="Rectangle" fill="#E6E6E6" x="429.446996" y="-2.13162821e-14" width="37.310151" height="37.4304" rx="2.25119983"></rect>
                    <rect id="Rectangle" fill="#E6E6E6" x="0.402627529" y="280.7168" width="37.310151" height="37.4304" rx="2.25119983"></rect>
                    <rect id="Rectangle" fill="#E6E6E6" x="429.446996" y="280.7168" width="37.310151" height="37.4304" rx="2.25119983"></rect>
                    <rect id="Rectangle" fill="#3F3177" x="381.769186" y="-2.13162821e-14" width="37.310151" height="37.4304" rx="2.25119983"></rect>
                    <rect id="Rectangle" fill="#3F3177" x="334.102561" y="46.7824" width="37.310151" height="37.4304" rx="2.25119983"></rect>
                    <rect id="Rectangle" fill="#3F3177" x="334.102561" y="93.576" width="37.310151" height="37.4304" rx="2.25119983"></rect>
                    <rect id="Rectangle" fill="#3F3177" x="238.758125" y="46.7824" width="37.310151" height="37.4304" rx="2.25119983"></rect>
                    <rect id="Rectangle" fill="#3F3177" x="286.424751" y="140.3584" width="37.310151" height="37.4304" rx="2.25119983"></rect>
                    <rect id="Rectangle" fill="#3F3177" x="191.091499" y="140.3584" width="37.310151" height="37.4304" rx="2.25119983"></rect>
                    <rect id="Rectangle" fill="#3F3177" x="191.091499" y="233.9344" width="37.310151" height="37.4304" rx="2.25119983"></rect>
                    <rect id="Rectangle" fill="#3F3177" x="381.769186" y="187.1408" width="37.310151" height="37.4304" rx="2.25119983"></rect>
                    <rect id="Rectangle" fill="#3F3177" x="429.446996" y="187.1408" width="37.310151" height="37.4304" rx="2.25119983"></rect>
                    <rect id="Rectangle" fill="#3F3177" x="381.769186" y="233.9344" width="37.310151" height="37.4304" rx="2.25119983"></rect>
                    <rect id="Rectangle" fill="#3F3177" x="286.424751" y="280.7168" width="37.310151" height="37.4304" rx="2.25119983"></rect>
                    <rect id="Rectangle" fill="#3F3177" x="238.758125" y="280.7168" width="37.310151" height="37.4304" rx="2.25119983"></rect>
                    <rect id="Rectangle" fill="#3F3177" x="143.413689" y="187.1408" width="37.310151" height="37.4304" rx="2.25119983"></rect>
                    <rect id="Rectangle" fill="#9795F9" x="286.424751" y="93.576" width="37.310151" height="37.4304" rx="2.25119983"></rect>
                    <rect id="Rectangle" fill="#9795F9" x="334.102561" y="233.9344" width="37.310151" height="37.4304" rx="2.25119983"></rect>
                    <rect id="Rectangle" fill="#9795F9" x="286.424751" y="46.7824" width="37.310151" height="37.4304" rx="2.25119983"></rect>
                    <rect id="Rectangle" fill="#9795F9" x="381.769186" y="140.3584" width="37.310151" height="37.4304" rx="2.25119983"></rect>
                    <rect id="Rectangle" fill="#9795F9" x="95.7470633" y="280.7168" width="37.310151" height="37.4304" rx="2.25119983"></rect>
                    <rect id="Rectangle" fill="#9795F9" x="381.769186" y="280.7168" width="37.310151" height="37.4304" rx="2.25119983"></rect>
                    <rect id="Rectangle" fill="#9795F9" x="429.446996" y="46.7824" width="37.310151" height="37.4304" rx="2.25119983"></rect>
                    <rect id="Rectangle" fill="#9795F9" x="238.758125" y="187.1408" width="37.310151" height="37.4304" rx="2.25119983"></rect>
                    <rect id="Rectangle" fill="#9795F9" x="143.413689" y="233.9344" width="37.310151" height="37.4304" rx="2.25119983"></rect>
                    <rect id="Rectangle" fill="#272359" x="238.758125" y="140.3584" width="37.310151" height="37.4304" rx="2.25119983"></rect>
                    <rect id="Rectangle" fill="#272359" x="334.102561" y="187.1408" width="37.310151" height="37.4304" rx="2.25119983"></rect>
                    <rect id="Rectangle" fill="#272359" x="286.424751" y="-2.13162821e-14" width="37.310151" height="37.4304" rx="2.25119983"></rect>
                    <rect id="Rectangle" fill="#272359" x="191.091499" y="93.576" width="37.310151" height="37.4304" rx="2.25119983"></rect>
                    <rect id="Rectangle" fill="#272359" x="95.7470633" y="233.9344" width="37.310151" height="37.4304" rx="2.25119983"></rect>
                    <rect id="Rectangle" fill="#272359" x="429.446996" y="233.9344" width="37.310151" height="37.4304" rx="2.25119983"></rect>
                    <rect id="Rectangle" fill="#272359" x="48.0692533" y="233.9344" width="37.310151" height="37.4304" rx="2.25119983"></rect>
                    <rect id="Rectangle" fill="#272359" x="95.7470633" y="187.1408" width="37.310151" height="37.4304" rx="2.25119983"></rect>
                    <rect id="Rectangle" fill="#272359" x="429.446996" y="140.3584" width="37.310151" height="37.4304" rx="2.25119983"></rect>
                    <rect id="Rectangle" fill="#272359" x="286.424751" y="187.1408" width="37.310151" height="37.4304" rx="2.25119983"></rect>
                    <rect id="Rectangle" fill="#272359" x="143.413689" y="140.3584" width="37.310151" height="37.4304" rx="2.25119983"></rect>
                </g>
            </g>
        </g>
    </g>
</svg>